…
# Show the summary table created above
print(building_age_summary)
```

    # A tibble: 25 × 7
       ward  no_of_buildings newest_building_age median_building_age
       <chr>           <int>               <dbl>               <dbl>
     1 01                 81                  16                56  
     2 02                130                  12                57.5
     3 03                240                  11                66  
     4 04                198                   6                63  
     5 05                232                   5                63  
     6 06                236                  18                63  
     7 07                101                   6                53  
     8 08                241                   4                65  
     9 09                 87                   7                64  
    10 10                 46                  10                36  
    # ℹ 15 more rows
    # ℹ 3 more variables: oldest_building_age <dbl>, mean_building_age <dbl>,
    #   building_age_range <dbl>
…
